…
```r
tibble(samp.df) # 160 obsv
```

```
## # A tibble: 160 x 37
##    StationCode SampleDate          Subregion StationName Project Projectcode
##    <chr>       <dttm>              <chr>     <chr>       <chr>   <chr>      
##  1 510CR0036   2018-06-18 00:00:00 Sacramen~ Sacramento~ Nation~ EPA_NRSA_2~
##  2 510CR0322   2018-06-20 00:00:00 Sacramen~ Miner Slou~ Nation~ EPA_NRSA_2~
##  3 510CR1007   2013-06-03 00:00:00 Sacramen~ Sacramento~ Nation~ EPA_NRSA_2~
##  4 510CS01xx   2012-03-27 00:00:00 North De~ Cache Slou~ Univer~ UMD        
##  5 510CS01xx   2012-10-12 00:00:00 North De~ Cache Slou~ Univer~ UMD        
##  6 510CS01xx   2013-03-26 00:00:00 North De~ Cache Slou~ Univer~ UMD        
##  7 510CS01xx   2013-10-07 00:00:00 North De~ Cache Slou~ Univer~ UMD        
##  8 510CS01xx   2014-03-28 00:00:00 North De~ Cache Slou~ Univer~ UMD        
##  9 510CS01xx   2014-10-04 00:00:00 North De~ Cache Slou~ Univer~ UMD        
## 10 510CS02xx   2012-03-27 00:00:00 North De~ Cache Slou~ Univer~ UMD        
## # ... with 150 more rows, and 31 more variables: n_taxa <int>, n_E <int>,
## #   n_P <int>, n_T <int>, n_O <int>, n_D <int>, n_Phylum_NA <int>,
## #   n_Arthropoda <int>, n_Annelida <int>, n_Nematoda <int>, n_Ectoprocta <int>,
## #   n_Bacillariophyta <int>, n_Cryptophyta <int>, n_Heterokontophyta <int>,
## #   n_Ochrophyta <int>, n_Coelenterata <int>, n_Nemertea <int>,
## #   n_Mollusca <int>, n_Platyhelminthes <int>, n_Bryozoa <int>,
## #   n_Cyanobacteria <int>, n_Chlorophyta <int>, n_Euglenozoa <int>,
## #   n_Streptophyta <int>, n_Rhodophyta <int>, n_Chordata <int>, geometry <POINT
## #   [°]>, EPT_taxa <int>, EPT_index <dbl>, ETO_taxa <int>, ETO_index <dbl>
```
…
### Change infinities and NaN values to NA
wq.stations <- wq.stations %>% 
  mutate_if(is.numeric, list(~na_if(., Inf))) %>% 
  mutate_if(is.numeric, list(~na_if(., -Inf))) %>%
  mutate_if(is.numeric, list(~na_if(., "NaN"))) %>%
  mutate_if(is.numeric, list(~na_if(., NaN)))
```


```r
tibble(wq.stations)
```

```
## # A tibble: 2,132 x 66
##    StationName SampleDate.wq       Project     n Subregion n_Alk mean_Alk sd_Alk
##    <chr>       <dttm>              <chr>   <int> <chr>     <int>    <dbl>  <dbl>
##  1 209-6T      2014-02-28 00:00:00 CA Dep~     2 South De~     0       NA     NA
##  2 209-6T      2014-03-26 00:00:00 CA Dep~     2 South De~     0       NA     NA
##  3 209-6T      2015-04-07 00:00:00 CA Dep~     2 South De~     0       NA     NA
##  4 209-6T      2016-12-15 00:00:00 CA Dep~     2 South De~     0       NA     NA
##  5 209-6T      2017-01-18 00:00:00 CA Dep~     2 South De~     0       NA     NA
##  6 28-ft RVTS~ 2014-02-26 00:00:00 CA Dep~     2 Sacramen~     0       NA     NA
##  7 28-ft RVTS~ 2014-03-26 00:00:00 CA Dep~     2 Sacramen~     0       NA     NA
##  8 Andrus Isl~ 2010-01-06 00:00:00 Delta ~     4 Central ~     0       NA     NA
##  9 Andrus Isl~ 2010-01-27 00:00:00 Delta ~     4 Central ~     0       NA     NA
## 10 Andrus Isl~ 2010-02-10 00:00:00 Delta ~     4 Central ~     0       NA     NA
## # ... with 2,122 more rows, and 58 more variables: min_Alk <dbl>,
## #   max_Alk <dbl>, n_N <int>, mean_N <dbl>, sd_N <dbl>, min_N <dbl>,
## #   max_N <dbl>, n_Chl_F <int>, mean_Chl_F <dbl>, sd_Chl_F <dbl>,
## #   min_Chl_F <dbl>, max_Chl_F <dbl>, n_Chl_TR <int>, mean_Chl_TR <dbl>,
## #   sd_Chl_TR <dbl>, min_Chl_TR <dbl>, max_Chl_TR <dbl>, n_DO <int>,
## #   mean_DO <dbl>, sd_DO <dbl>, min_DO <dbl>, max_DO <dbl>, n_pH <int>,
## #   mean_pH <dbl>, sd_pH <dbl>, min_pH <dbl>, max_pH <dbl>, n_Sal <int>,
## #   mean_Sal <dbl>, sd_Sal <dbl>, min_Sal <dbl>, max_Sal <dbl>, n_Secc <int>,
## #   mean_Secc <dbl>, sd_Secc <dbl>, min_Secc <dbl>, max_Secc <dbl>,
…
```r
tibble(com.dates)
```

```
## # A tibble: 64 x 102
##    StationCode SampleDate          Subregion.x StationName.x Project.x
##    <chr>       <dttm>              <chr>       <chr>         <chr>    
##  1 510STODWx   2014-06-18 00:00:00 Sacramento~ Stone Lakes   EPA 104b~
##  2 543R00137   2012-05-15 00:00:00 Confluence  Deer Cr_137-~ CCCWP Cr~
##  3 543R01103   2015-04-21 00:00:00 Confluence  West Antioch~ CCCWP Cr~
##  4 544CCC001   2011-06-06 00:00:00 Confluence  San Joaquin ~ RWB5 Cle~
##  5 544CCC001   2011-07-06 00:00:00 Confluence  San Joaquin ~ RWB5 Cle~
##  6 544CCC001   2011-08-19 00:00:00 Confluence  San Joaquin ~ RWB5 Cle~
##  7 544CCC001   2011-09-20 00:00:00 Confluence  San Joaquin ~ RWB5 Cle~
##  8 544CCC001   2011-10-17 00:00:00 Confluence  San Joaquin ~ RWB5 Cle~
##  9 544CCC003   2011-06-06 00:00:00 Central De~ Old River at~ RWB5 Cle~
## 10 544CCC003   2011-07-06 00:00:00 Central De~ Old River at~ RWB5 Cle~
## # ... with 54 more rows, and 97 more variables: Projectcode <chr>,
## #   n_taxa <int>, n_E <int>, n_P <int>, n_T <int>, n_O <int>, n_D <int>,
## #   n_Phylum_NA <int>, n_Arthropoda <int>, n_Annelida <int>, n_Nematoda <int>,
## #   n_Ectoprocta <int>, n_Bacillariophyta <int>, n_Cryptophyta <int>,
## #   n_Heterokontophyta <int>, n_Ochrophyta <int>, n_Coelenterata <int>,
## #   n_Nemertea <int>, n_Mollusca <int>, n_Platyhelminthes <int>,
## #   n_Bryozoa <int>, n_Cyanobacteria <int>, n_Chlorophyta <int>,
## #   n_Euglenozoa <int>, n_Streptophyta <int>, n_Rhodophyta <int>,
## #   n_Chordata <int>, geometry <POINT [m]>, EPT_taxa <int>, EPT_index <dbl>,
…
